k_idanas = {
	1002.1.1 = {
		holder = sun_elvish0001	#Jaher
	}
}

c_ginerdu = {
	1002.1.1 = {
		liege = k_idanas
		holder = sun_elvish0034 # Veharia Lezuir
	}
}

c_irrliam = {
	1002.1.1 = {
		liege = k_idanas
		holder = sun_elvish0028 # Irrlion Irrliazuir
	}
}
