﻿# root: The province in which the building was completed
on_building_completed = {
	effect = {
		root = {
			#Hard working Tradition
			if = {
				limit = {
					culture = {
						has_cultural_parameter = development_gain_on_building_complete
					}
					NOT = {
						county = {
							has_variable = dev_gain_cooldown
						}
					}
				}
				county = {
					change_development_progress_with_overflow = 25
					set_variable = {
						name = dev_gain_cooldown
						value = yes
						days = 365
					}
				}
			}

			#Metal crafting Tradition
			if = {
				limit = {
					culture = {
						has_cultural_parameter = prestige_gain_on_building_complete_in_mountains
					}
					OR = {
						terrain = mountains
						terrain = desert_mountains
					}
				}
				county.holder = {
					add_prestige = medium_prestige_value
				}
			}

			#Sacred Mountains Tradition
			if = {
				limit = {
					county.holder.culture = {
						has_cultural_parameter = piety_gain_on_building_complete_in_mountains
					}
					OR = {
						terrain = mountains
						terrain = desert_mountains
					}
				}
				county.holder = {
					add_piety = minor_piety_value
				}
			}

			#Sacred Groves Tradition
			if = {
				limit = {
					county.holder.culture = {
						has_cultural_parameter = piety_gain_on_building_complete_in_forest_taiga
					}
					OR = {
						terrain = forest
						terrain = taiga
						terrain = jungle
					}
				}
				county.holder = {
					add_piety = minor_piety_value
				}
			}

			# FP2 Dynasty perk
			if = {
				limit = {
					has_holding_type = city_holding
					exists = county.holder.dynasty
					county.holder.dynasty = {
						has_dynasty_perk = fp2_urbanism_legacy_4
					}
				}
				county = {
					holder = {
						send_interface_toast = {
							type = event_generic_good
							title = prestige_gained_from_building_completion
							left_icon = root.barony
							add_prestige = medium_prestige_gain
						}
					}
					#### Chance to add super guest!
					# Set variables
					random = {
						chance = 10
						modifier = {
							add = county.development_level
						}
						set_variable = {
							name = number_prestigious_new_guests
							value = 1
						}
						if = {
							limit = { county.development_level >= max_development_level  }

							set_variable = {
								name = holding_quality
								value = 3
							}
						}
						else_if = {
							limit = { county.development_level >= great_development_level  }
							set_variable = {
								name = holding_quality
								value = 3
							}
						}
						else_if = {
							limit = { county.development_level >= good_development_level  }
							set_variable = {
								name = holding_quality
								value = 2
							}
						}
						else_if = {
							limit = { county.development_level >= medium_development_level  }
							set_variable = {
								name = holding_quality
								value = 2
							}
						}
						else_if = {
							limit = { county.development_level >= bad_development_level  }
							set_variable = {
								name = holding_quality
								value = 1
							}
						}
						else = {
							set_variable = {
								name = holding_quality
								value = 1
							}
						}
					}

					holder = {
						# Trigger the hidden event
						trigger_event = fp2_other_decisions.0001
					}
				}
			}

			# Struggle parameter
			if = {
				limit = {
					has_holding_type = castle_holding
					county.holder = {
						any_character_struggle = {
							involvement = involved
							has_struggle_phase_parameter = completing_building_in_castle_gives_development
						}
					}
				}
				county = {
					change_development_progress_with_overflow = 10
				}
			}

			if = {
				limit = {
					has_holding_type = church_holding
					county.holder = {
						any_character_struggle = {
							involvement = involved
							has_struggle_phase_parameter = completing_building_in_temple_gives_piety
						}
					}
				}
				county.holder = {
					add_piety = medium_piety_gain
				}
			}

			# Struggle catalyst
			if = {
				limit = {
					has_holding_type = castle_holding
					county.holder = {
						any_character_struggle = {
							involvement = involved
							phase_has_catalyst = catalyst_new_building_in_castle
						}
					}
				}
				county.holder = {
					every_character_struggle = {
						involvement = involved
						activate_struggle_catalyst = {
							catalyst = catalyst_new_building_in_castle
							character = root.county.holder
						}
					}
				}
			}
			else_if = {
				limit = {
					has_holding_type = city_holding
					county.holder = {
						any_character_struggle = {
							involvement = involved
							phase_has_catalyst = catalyst_new_building_in_city
						}
					}
				}
				county.holder = {
					every_character_struggle = {
						involvement = involved
						activate_struggle_catalyst = {
							catalyst = catalyst_new_building_in_city
							character = root.county.holder
						}
					}
				}
			}
			else_if = {
				limit = {
					has_holding_type = church_holding
					county.holder = {
						any_character_struggle = {
							involvement = involved
							phase_has_catalyst = catalyst_new_building_in_temple
						}
					}
				}
				county.holder = {
					every_character_struggle = {
						involvement = involved
						activate_struggle_catalyst = {
							catalyst = catalyst_new_building_in_temple
							character = root.county.holder
						}
					}
				}
			}
		}
	}
}
